%YAML 1.1
%TAG !u! tag:unity3d.com,2011:
--- !u!74 &7400000
AnimationClip:
  m_ObjectHideFlags: 0
  m_CorrespondingSourceObject: {fileID: 0}
  m_PrefabInstance: {fileID: 0}
  m_PrefabAsset: {fileID: 0}
  m_Name: Bullet_Explore
  serializedVersion: 6
  m_Legacy: 0
  m_Compressed: 0
  m_UseHighQualityCurve: 1
  m_RotationCurves: []
  m_CompressedRotationCurves: []
  m_EulerCurves: []
  m_PositionCurves: []
  m_ScaleCurves: []
  m_FloatCurves: []
  m_PPtrCurves:
  - curve:
    - time: 0
      value: {fileID: 21300000, guid: 90ee88baccdf54abebe835f1c91ff93e, type: 3}
    - time: 0.16666667
      value: {fileID: 21300000, guid: e6e621a53ed2b425eb3588825a42a930, type: 3}
    - time: 0.33333334
      value: {fileID: 21300000, guid: d2929c06aec314c24bc54741f52c3424, type: 3}
    - time: 0.5
      value: {fileID: 21300000, guid: 819ec56aee2004012a586ee267177599, type: 3}
    - time: 0.6666667
      value: {fileID: 21300000, guid: 3908aca5290c74b0f952f0861f71f500, type: 3}
    - time: 0.8333333
      value: {fileID: 21300000, guid: 6cddca0fc40f143ef84e8cdbee2ba153, type: 3}
    attribute: m_Sprite
    path: 
    classID: 212
    script: {fileID: 0}
  m_SampleRate: 60
  m_WrapMode: 0
  m_Bounds:
    m_Center: {x: 0, y: 0, z: 0}
    m_Extent: {x: 0, y: 0, z: 0}
  m_ClipBindingConstant:
    genericBindings:
    - serializedVersion: 2
      path: 0
      attribute: 0
      script: {fileID: 0}
      typeID: 212
      customType: 23
      isPPtrCurve: 1
    pptrCurveMapping:
    - {fileID: 21300000, guid: 90ee88baccdf54abebe835f1c91ff93e, type: 3}
    - {fileID: 21300000, guid: e6e621a53ed2b425eb3588825a42a930, type: 3}
    - {fileID: 21300000, guid: d2929c06aec314c24bc54741f52c3424, type: 3}
    - {fileID: 21300000, guid: 819ec56aee2004012a586ee267177599, type: 3}
    - {fileID: 21300000, guid: 3908aca5290c74b0f952f0861f71f500, type: 3}
    - {fileID: 21300000, guid: 6cddca0fc40f143ef84e8cdbee2ba153, type: 3}
  m_AnimationClipSettings:
    serializedVersion: 2
    m_AdditiveReferencePoseClip: {fileID: 0}
    m_AdditiveReferencePoseTime: 0
    m_StartTime: 0
    m_StopTime: 0.84999996
    m_OrientationOffsetY: 0
    m_Level: 0
    m_CycleOffset: 0
    m_HasAdditiveReferencePose: 0
    m_LoopTime: 0
    m_LoopBlend: 0
    m_LoopBlendOrientation: 0
    m_LoopBlendPositionY: 0
    m_LoopBlendPositionXZ: 0
    m_KeepOriginalOrientation: 0
    m_KeepOriginalPositionY: 1
    m_KeepOriginalPositionXZ: 0
    m_HeightFromFeet: 0
    m_Mirror: 0
  m_EditorCurves: []
  m_EulerEditorCurves: []
  m_HasGenericRootTransform: 0
  m_HasMotionFloatCurves: 0
  m_Events:
  - time: 0.8333333
    functionName: Deactivate
    data: 
    objectReferenceParameter: {fileID: 0}
    floatParameter: 0
    intParameter: 0
    messageOptions: 0
